%YAML 1.1
%TAG !u! tag:unity3d.com,2011:
--- !u!1001 &100100000
Prefab:
  m_ObjectHideFlags: 1
  serializedVersion: 2
  m_Modification:
    m_TransformParent: {fileID: 0}
    m_Modifications: []
    m_RemovedComponents: []
  m_ParentPrefab: {fileID: 0}
  m_RootGameObject: {fileID: 1168611227893632}
  m_IsPrefabParent: 1
--- !u!1 &1168611227893632
GameObject:
  m_ObjectHideFlags: 0
  m_PrefabParentObject: {fileID: 0}
  m_PrefabInternal: {fileID: 100100000}
  serializedVersion: 5
  m_Component:
  - component: {fileID: 4569804742946144}
  - component: {fileID: 2569400267685382016}
  m_Layer: 31
  m_Name: BaseTile
  m_TagString: Untagged
  m_Icon: {fileID: 0}
  m_NavMeshLayer: 0
  m_StaticEditorFlags: 0
  m_IsActive: 1
--- !u!1 &1452196784830552
GameObject:
  m_ObjectHideFlags: 0
  m_PrefabParentObject: {fileID: 0}
  m_PrefabInternal: {fileID: 100100000}
  serializedVersion: 5
  m_Component:
  - component: {fileID: 4096924489238308}
  - component: {fileID: 8195094282076039484}
  - component: {fileID: 3664157343493153090}
  m_Layer: 31
  m_Name: Layer1
  m_TagString: Untagged
  m_Icon: {fileID: 0}
  m_NavMeshLayer: 0
  m_StaticEditorFlags: 0
  m_IsActive: 1
--- !u!4 &4096924489238308
Transform:
  m_ObjectHideFlags: 1
  m_PrefabParentObject: {fileID: 0}
  m_PrefabInternal: {fileID: 100100000}
  m_GameObject: {fileID: 1452196784830552}
  m_LocalRotation: {x: -0, y: -0, z: -0, w: 1}
  m_LocalPosition: {x: 0, y: 0, z: 0}
  m_LocalScale: {x: 1, y: 1, z: 1}
  m_Children: []
  m_Father: {fileID: 4569804742946144}
  m_RootOrder: 0
  m_LocalEulerAnglesHint: {x: 0, y: 0, z: 0}
--- !u!4 &4569804742946144
Transform:
  m_ObjectHideFlags: 1
  m_PrefabParentObject: {fileID: 0}
  m_PrefabInternal: {fileID: 100100000}
  m_GameObject: {fileID: 1168611227893632}
  m_LocalRotation: {x: 0, y: 0, z: 0, w: 1}
  m_LocalPosition: {x: 0, y: 0, z: 0}
  m_LocalScale: {x: 1, y: 1, z: 1}
  m_Children:
  - {fileID: 4096924489238308}
  m_Father: {fileID: 0}
  m_RootOrder: 0
  m_LocalEulerAnglesHint: {x: 0, y: 0, z: 0}
--- !u!114 &114907217957734582
MonoBehaviour:
  m_ObjectHideFlags: 0
  m_PrefabParentObject: {fileID: 0}
  m_PrefabInternal: {fileID: 0}
  m_GameObject: {fileID: 0}
  m_Enabled: 1
  m_EditorHideFlags: 1
  m_Script: {fileID: 12395, guid: 0000000000000000e000000000000000, type: 0}
  m_Name: Palette Settings
  m_EditorClassIdentifier: 
  cellSizing: 0
--- !u!156049354 &2569400267685382016
Grid:
  m_ObjectHideFlags: 1
  m_PrefabParentObject: {fileID: 0}
  m_PrefabInternal: {fileID: 100100000}
  m_GameObject: {fileID: 1168611227893632}
  m_Enabled: 1
  m_CellSize: {x: 2, y: 2.56, z: 0}
  m_CellGap: {x: 0, y: 0, z: 0}
  m_CellLayout: 0
  m_CellSwizzle: 0
--- !u!483693784 &3664157343493153090
TilemapRenderer:
  m_ObjectHideFlags: 1
  m_PrefabParentObject: {fileID: 0}
  m_PrefabInternal: {fileID: 100100000}
  m_GameObject: {fileID: 1452196784830552}
  m_Enabled: 0
  m_CastShadows: 0
  m_ReceiveShadows: 0
  m_DynamicOccludee: 0
  m_MotionVectors: 1
  m_LightProbeUsage: 0
  m_ReflectionProbeUsage: 0
  m_Materials:
  - {fileID: 10754, guid: 0000000000000000f000000000000000, type: 0}
  m_StaticBatchInfo:
    firstSubMesh: 0
    subMeshCount: 0
  m_StaticBatchRoot: {fileID: 0}
  m_ProbeAnchor: {fileID: 0}
  m_LightProbeVolumeOverride: {fileID: 0}
  m_ScaleInLightmap: 1
  m_PreserveUVs: 0
  m_IgnoreNormalsForChartDetection: 0
  m_ImportantGI: 0
  m_StitchLightmapSeams: 0
  m_SelectedEditorRenderState: 0
  m_MinimumChartSize: 4
  m_AutoUVMaxDistance: 0.5
  m_AutoUVMaxAngle: 89
  m_LightmapParameters: {fileID: 0}
  m_SortingLayerID: 0
  m_SortingLayer: 0
  m_SortingOrder: 0
  m_ChunkSize: {x: 32, y: 32, z: 32}
  m_MaxChunkCount: 16
  m_MaxFrameAge: 16
  m_SortOrder: 0
  m_MaskInteraction: 0
--- !u!1839735485 &8195094282076039484
Tilemap:
  m_ObjectHideFlags: 1
  m_PrefabParentObject: {fileID: 0}
  m_PrefabInternal: {fileID: 100100000}
  m_GameObject: {fileID: 1452196784830552}
  m_Enabled: 1
  m_Tiles:
  - first: {x: -2, y: -3, z: 0}
    second:
      m_TileIndex: 64
      m_TileSpriteIndex: 62
      m_TileMatrixIndex: 0
      m_TileColorIndex: 0
      m_ObjectToInstantiate: {fileID: 0}
      m_TileFlags: 1
      m_ColliderType: 1
  - first: {x: 0, y: -2, z: 0}
    second:
      m_TileIndex: 24
      m_TileSpriteIndex: 56
      m_TileMatrixIndex: 0
      m_TileColorIndex: 0
      m_ObjectToInstantiate: {fileID: 0}
      m_TileFlags: 1
      m_ColliderType: 1
  - first: {x: 1, y: -2, z: 0}
    second:
      m_TileIndex: 25
      m_TileSpriteIndex: 55
      m_TileMatrixIndex: 0
      m_TileColorIndex: 0
      m_ObjectToInstantiate: {fileID: 0}
      m_TileFlags: 1
      m_ColliderType: 1
  - first: {x: 2, y: -2, z: 0}
    second:
      m_TileIndex: 26
      m_TileSpriteIndex: 54
      m_TileMatrixIndex: 0
      m_TileColorIndex: 0
      m_ObjectToInstantiate: {fileID: 0}
      m_TileFlags: 1
      m_ColliderType: 1
  - first: {x: 0, y: -1, z: 0}
    second:
      m_TileIndex: 21
      m_TileSpriteIndex: 21
      m_TileMatrixIndex: 0
      m_TileColorIndex: 0
      m_ObjectToInstantiate: {fileID: 0}
      m_TileFlags: 1
      m_ColliderType: 1
  - first: {x: 1, y: -1, z: 0}
    second:
      m_TileIndex: 22
      m_TileSpriteIndex: 22
      m_TileMatrixIndex: 0
      m_TileColorIndex: 0
      m_ObjectToInstantiate: {fileID: 0}
      m_TileFlags: 1
      m_ColliderType: 1
  - first: {x: 2, y: -1, z: 0}
    second:
      m_TileIndex: 23
      m_TileSpriteIndex: 23
      m_TileMatrixIndex: 0
      m_TileColorIndex: 0
      m_ObjectToInstantiate: {fileID: 0}
      m_TileFlags: 1
      m_ColliderType: 1
  - first: {x: -1, y: 0, z: 0}
    second:
      m_TileIndex: 63
      m_TileSpriteIndex: 63
      m_TileMatrixIndex: 0
      m_TileColorIndex: 0
      m_ObjectToInstantiate: {fileID: 0}
      m_TileFlags: 1
      m_ColliderType: 1
  - first: {x: 0, y: 0, z: 0}
    second:
      m_TileIndex: 18
      m_TileSpriteIndex: 18
      m_TileMatrixIndex: 0
      m_TileColorIndex: 0
      m_ObjectToInstantiate: {fileID: 0}
      m_TileFlags: 1
      m_ColliderType: 1
  - first: {x: 1, y: 0, z: 0}
    second:
      m_TileIndex: 19
      m_TileSpriteIndex: 19
      m_TileMatrixIndex: 0
      m_TileColorIndex: 0
      m_ObjectToInstantiate: {fileID: 0}
      m_TileFlags: 1
      m_ColliderType: 1
  - first: {x: 2, y: 0, z: 0}
    second:
      m_TileIndex: 20
      m_TileSpriteIndex: 20
      m_TileMatrixIndex: 0
      m_TileColorIndex: 0
      m_ObjectToInstantiate: {fileID: 0}
      m_TileFlags: 1
      m_ColliderType: 1
  - first: {x: 0, y: 1, z: 0}
    second:
      m_TileIndex: 6
      m_TileSpriteIndex: 6
      m_TileMatrixIndex: 0
      m_TileColorIndex: 0
      m_ObjectToInstantiate: {fileID: 0}
      m_TileFlags: 1
      m_ColliderType: 1
  - first: {x: 1, y: 1, z: 0}
    second:
      m_TileIndex: 7
      m_TileSpriteIndex: 7
      m_TileMatrixIndex: 0
      m_TileColorIndex: 0
      m_ObjectToInstantiate: {fileID: 0}
      m_TileFlags: 1
      m_ColliderType: 1
  - first: {x: 2, y: 1, z: 0}
    second:
      m_TileIndex: 8
      m_TileSpriteIndex: 8
      m_TileMatrixIndex: 0
      m_TileColorIndex: 0
      m_ObjectToInstantiate: {fileID: 0}
      m_TileFlags: 1
      m_ColliderType: 1
  - first: {x: 0, y: 2, z: 0}
    second:
      m_TileIndex: 3
      m_TileSpriteIndex: 3
      m_TileMatrixIndex: 0
      m_TileColorIndex: 0
      m_ObjectToInstantiate: {fileID: 0}
      m_TileFlags: 1
      m_ColliderType: 1
  - first: {x: 1, y: 2, z: 0}
    second:
      m_TileIndex: 4
      m_TileSpriteIndex: 4
      m_TileMatrixIndex: 0
      m_TileColorIndex: 0
      m_ObjectToInstantiate: {fileID: 0}
      m_TileFlags: 1
      m_ColliderType: 1
  - first: {x: 2, y: 2, z: 0}
    second:
      m_TileIndex: 5
      m_TileSpriteIndex: 5
      m_TileMatrixIndex: 0
      m_TileColorIndex: 0
      m_ObjectToInstantiate: {fileID: 0}
      m_TileFlags: 1
      m_ColliderType: 1
  - first: {x: 4, y: 2, z: 0}
    second:
      m_TileIndex: 53
      m_TileSpriteIndex: 73
      m_TileMatrixIndex: 0
      m_TileColorIndex: 0
      m_ObjectToInstantiate: {fileID: 0}
      m_TileFlags: 1
      m_ColliderType: 1
  - first: {x: 0, y: 3, z: 0}
    second:
      m_TileIndex: 0
      m_TileSpriteIndex: 0
      m_TileMatrixIndex: 0
      m_TileColorIndex: 0
      m_ObjectToInstantiate: {fileID: 0}
      m_TileFlags: 1
      m_ColliderType: 1
  - first: {x: 1, y: 3, z: 0}
    second:
      m_TileIndex: 1
      m_TileSpriteIndex: 1
      m_TileMatrixIndex: 0
      m_TileColorIndex: 0
      m_ObjectToInstantiate: {fileID: 0}
      m_TileFlags: 1
      m_ColliderType: 1
  - first: {x: 2, y: 3, z: 0}
    second:
      m_TileIndex: 2
      m_TileSpriteIndex: 2
      m_TileMatrixIndex: 0
      m_TileColorIndex: 0
      m_ObjectToInstantiate: {fileID: 0}
      m_TileFlags: 1
      m_ColliderType: 1
  - first: {x: 0, y: 4, z: 0}
    second:
      m_TileIndex: 60
      m_TileSpriteIndex: 68
      m_TileMatrixIndex: 0
      m_TileColorIndex: 0
      m_ObjectToInstantiate: {fileID: 0}
      m_TileFlags: 1
      m_ColliderType: 1
  - first: {x: 1, y: 4, z: 0}
    second:
      m_TileIndex: 61
      m_TileSpriteIndex: 67
      m_TileMatrixIndex: 0
      m_TileColorIndex: 0
      m_ObjectToInstantiate: {fileID: 0}
      m_TileFlags: 1
      m_ColliderType: 1
  - first: {x: 2, y: 4, z: 0}
    second:
      m_TileIndex: 62
      m_TileSpriteIndex: 42
      m_TileMatrixIndex: 0
      m_TileColorIndex: 0
      m_ObjectToInstantiate: {fileID: 0}
      m_TileFlags: 1
      m_ColliderType: 1
  - first: {x: 3, y: 4, z: 0}
    second:
      m_TileIndex: 34
      m_TileSpriteIndex: 34
      m_TileMatrixIndex: 0
      m_TileColorIndex: 0
      m_ObjectToInstantiate: {fileID: 0}
      m_TileFlags: 1
      m_ColliderType: 1
  - first: {x: 4, y: 4, z: 0}
    second:
      m_TileIndex: 35
      m_TileSpriteIndex: 35
      m_TileMatrixIndex: 0
      m_TileColorIndex: 0
      m_ObjectToInstantiate: {fileID: 0}
      m_TileFlags: 1
      m_ColliderType: 1
  - first: {x: 5, y: 4, z: 0}
    second:
      m_TileIndex: 31
      m_TileSpriteIndex: 31
      m_TileMatrixIndex: 0
      m_TileColorIndex: 0
      m_ObjectToInstantiate: {fileID: 0}
      m_TileFlags: 1
      m_ColliderType: 1
  - first: {x: 0, y: 5, z: 0}
    second:
      m_TileIndex: 57
      m_TileSpriteIndex: 70
      m_TileMatrixIndex: 0
      m_TileColorIndex: 0
      m_ObjectToInstantiate: {fileID: 0}
      m_TileFlags: 1
      m_ColliderType: 1
  - first: {x: 1, y: 5, z: 0}
    second:
      m_TileIndex: 58
      m_TileSpriteIndex: 69
      m_TileMatrixIndex: 0
      m_TileColorIndex: 0
      m_ObjectToInstantiate: {fileID: 0}
      m_TileFlags: 1
      m_ColliderType: 1
  - first: {x: 2, y: 5, z: 0}
    second:
      m_TileIndex: 59
      m_TileSpriteIndex: 39
      m_TileMatrixIndex: 0
      m_TileColorIndex: 0
      m_ObjectToInstantiate: {fileID: 0}
      m_TileFlags: 1
      m_ColliderType: 1
  - first: {x: 3, y: 5, z: 0}
    second:
      m_TileIndex: 28
      m_TileSpriteIndex: 65
      m_TileMatrixIndex: 0
      m_TileColorIndex: 0
      m_ObjectToInstantiate: {fileID: 0}
      m_TileFlags: 1
      m_ColliderType: 1
  - first: {x: 4, y: 5, z: 0}
    second:
      m_TileIndex: 27
      m_TileSpriteIndex: 27
      m_TileMatrixIndex: 0
      m_TileColorIndex: 0
      m_ObjectToInstantiate: {fileID: 0}
      m_TileFlags: 1
      m_ColliderType: 1
  - first: {x: 5, y: 5, z: 0}
    second:
      m_TileIndex: 33
      m_TileSpriteIndex: 33
      m_TileMatrixIndex: 0
      m_TileColorIndex: 0
      m_ObjectToInstantiate: {fileID: 0}
      m_TileFlags: 1
      m_ColliderType: 1
  - first: {x: 0, y: 6, z: 0}
    second:
      m_TileIndex: 54
      m_TileSpriteIndex: 72
      m_TileMatrixIndex: 0
      m_TileColorIndex: 0
      m_ObjectToInstantiate: {fileID: 0}
      m_TileFlags: 1
      m_ColliderType: 1
  - first: {x: 1, y: 6, z: 0}
    second:
      m_TileIndex: 55
      m_TileSpriteIndex: 71
      m_TileMatrixIndex: 0
      m_TileColorIndex: 0
      m_ObjectToInstantiate: {fileID: 0}
      m_TileFlags: 1
      m_ColliderType: 1
  - first: {x: 2, y: 6, z: 0}
    second:
      m_TileIndex: 56
      m_TileSpriteIndex: 36
      m_TileMatrixIndex: 0
      m_TileColorIndex: 0
      m_ObjectToInstantiate: {fileID: 0}
      m_TileFlags: 1
      m_ColliderType: 1
  - first: {x: 3, y: 6, z: 0}
    second:
      m_TileIndex: 32
      m_TileSpriteIndex: 66
      m_TileMatrixIndex: 0
      m_TileColorIndex: 0
      m_ObjectToInstantiate: {fileID: 0}
      m_TileFlags: 1
      m_ColliderType: 1
  - first: {x: 4, y: 6, z: 0}
    second:
      m_TileIndex: 30
      m_TileSpriteIndex: 32
      m_TileMatrixIndex: 0
      m_TileColorIndex: 0
      m_ObjectToInstantiate: {fileID: 0}
      m_TileFlags: 1
      m_ColliderType: 1
  - first: {x: 5, y: 6, z: 0}
    second:
      m_TileIndex: 29
      m_TileSpriteIndex: 29
      m_TileMatrixIndex: 0
      m_TileColorIndex: 0
      m_ObjectToInstantiate: {fileID: 0}
      m_TileFlags: 1
      m_ColliderType: 1
  m_AnimatedTiles: {}
  m_TileAssetArray:
  - m_RefCount: 1
    m_Data: {fileID: 11400000, guid: cc165c93a7f7245cabb0fb988ba241df, type: 2}
  - m_RefCount: 1
    m_Data: {fileID: 11400000, guid: 5573b533fb248497fa9f9ead122aa2d6, type: 2}
  - m_RefCount: 1
    m_Data: {fileID: 11400000, guid: 077bbe7833d40427f9198af90713a558, type: 2}
  - m_RefCount: 1
    m_Data: {fileID: 11400000, guid: 6b74b43da2b2e4713979ff61ac4bff12, type: 2}
  - m_RefCount: 1
    m_Data: {fileID: 11400000, guid: 2c1a53bf0c48f4e6fb2c7b090c35cff2, type: 2}
  - m_RefCount: 1
    m_Data: {fileID: 11400000, guid: 16cd25d975e734e07afecdd9448673be, type: 2}
  - m_RefCount: 1
    m_Data: {fileID: 11400000, guid: 8383f8e405add40e5a3388da6e19d73b, type: 2}
  - m_RefCount: 1
    m_Data: {fileID: 11400000, guid: a5c9ce256ad64452fb1e3f29ba119581, type: 2}
  - m_RefCount: 1
    m_Data: {fileID: 11400000, guid: 365069ef0d77443e4b9844acd4de45c3, type: 2}
  - m_RefCount: 0
    m_Data: {fileID: 0}
  - m_RefCount: 0
    m_Data: {fileID: 0}
  - m_RefCount: 0
    m_Data: {fileID: 0}
  - m_RefCount: 0
    m_Data: {fileID: 0}
  - m_RefCount: 0
    m_Data: {fileID: 0}
  - m_RefCount: 0
    m_Data: {fileID: 0}
  - m_RefCount: 0
    m_Data: {fileID: 0}
  - m_RefCount: 0
    m_Data: {fileID: 0}
  - m_RefCount: 0
    m_Data: {fileID: 0}
  - m_RefCount: 1
    m_Data: {fileID: 11400000, guid: bb1bf2e0dbe71491ebec58d3477500d6, type: 2}
  - m_RefCount: 1
    m_Data: {fileID: 11400000, guid: 201da26bf0b204b14b946af88796498a, type: 2}
  - m_RefCount: 1
    m_Data: {fileID: 11400000, guid: 925112c51726f4049829a5060e98b322, type: 2}
  - m_RefCount: 1
    m_Data: {fileID: 11400000, guid: e8a5fb338857c4013a507ce62d8a12a2, type: 2}
  - m_RefCount: 1
    m_Data: {fileID: 11400000, guid: 57f0e4a08febb426f86630cba4d70239, type: 2}
  - m_RefCount: 1
    m_Data: {fileID: 11400000, guid: bc841d89bf4584fa993379122b997244, type: 2}
  - m_RefCount: 1
    m_Data: {fileID: 11400000, guid: 95979405871e64fa68fb8a265e4d45bc, type: 2}
  - m_RefCount: 1
    m_Data: {fileID: 11400000, guid: 151510bd9653740639635ef67c29dfea, type: 2}
  - m_RefCount: 1
    m_Data: {fileID: 11400000, guid: 58e58fcf72bbc4740acc443cc56e5443, type: 2}
  - m_RefCount: 1
    m_Data: {fileID: 11400000, guid: 23d8d052c5852472d90bb24231b9d006, type: 2}
  - m_RefCount: 1
    m_Data: {fileID: 11400000, guid: 4b90b6ba01ed7487c922e4467192aee9, type: 2}
  - m_RefCount: 1
    m_Data: {fileID: 11400000, guid: c79191f5aa8654c1aa165e3ed6ee18ac, type: 2}
  - m_RefCount: 1
    m_Data: {fileID: 11400000, guid: e5aa07c27293a4a089eaa81f834f37bc, type: 2}
  - m_RefCount: 1
    m_Data: {fileID: 11400000, guid: ed243f4c49167405a9849c9c432b3e46, type: 2}
  - m_RefCount: 1
    m_Data: {fileID: 11400000, guid: 4ba339979b44c4f0aaa649b284d6382e, type: 2}
  - m_RefCount: 1
    m_Data: {fileID: 11400000, guid: 27e40c878adfe45d4ae28d170bf05dd4, type: 2}
  - m_RefCount: 1
    m_Data: {fileID: 11400000, guid: 217df753570c54671b87f3719066502c, type: 2}
  - m_RefCount: 1
    m_Data: {fileID: 11400000, guid: 1b32a787035934da494441aa01e748d6, type: 2}
  - m_RefCount: 0
    m_Data: {fileID: 0}
  - m_RefCount: 0
    m_Data: {fileID: 0}
  - m_RefCount: 0
    m_Data: {fileID: 0}
  - m_RefCount: 0
    m_Data: {fileID: 0}
  - m_RefCount: 0
    m_Data: {fileID: 0}
  - m_RefCount: 0
    m_Data: {fileID: 0}
  - m_RefCount: 0
    m_Data: {fileID: 0}
  - m_RefCount: 0
    m_Data: {fileID: 0}
  - m_RefCount: 0
    m_Data: {fileID: 0}
  - m_RefCount: 0
    m_Data: {fileID: 0}
  - m_RefCount: 0
    m_Data: {fileID: 0}
  - m_RefCount: 0
    m_Data: {fileID: 0}
  - m_RefCount: 0
    m_Data: {fileID: 0}
  - m_RefCount: 0
    m_Data: {fileID: 0}
  - m_RefCount: 0
    m_Data: {fileID: 0}
  - m_RefCount: 0
    m_Data: {fileID: 0}
  - m_RefCount: 0
    m_Data: {fileID: 0}
  - m_RefCount: 1
    m_Data: {fileID: 11400000, guid: a815fbdace23245e2b1e4137d8cb4791, type: 2}
  - m_RefCount: 1
    m_Data: {fileID: 11400000, guid: a40add4b18c174db6a012d6dac5c55c7, type: 2}
  - m_RefCount: 1
    m_Data: {fileID: 11400000, guid: bcd0dca3cd9d644389aa2745ba7e4a26, type: 2}
  - m_RefCount: 1
    m_Data: {fileID: 11400000, guid: a88a9815c732246a48bd1c2d64ce9f4e, type: 2}
  - m_RefCount: 1
    m_Data: {fileID: 11400000, guid: 1ba283b0c4ab84a4f98896cfd7c06db7, type: 2}
  - m_RefCount: 1
    m_Data: {fileID: 11400000, guid: d8d305ebb37914220bbb6086d4f76292, type: 2}
  - m_RefCount: 1
    m_Data: {fileID: 11400000, guid: 66dffd968eb924edcbdce9cbd5e24ce7, type: 2}
  - m_RefCount: 1
    m_Data: {fileID: 11400000, guid: 33cdbefe172814290983cfa7e64f91de, type: 2}
  - m_RefCount: 1
    m_Data: {fileID: 11400000, guid: f56f1f561358a4b1dae13c3cd6e7ed08, type: 2}
  - m_RefCount: 1
    m_Data: {fileID: 11400000, guid: 7fc310c83eb4e4b6cb6e5f7059ad6f8a, type: 2}
  - m_RefCount: 1
    m_Data: {fileID: 11400000, guid: f35e65811d71b5044bdb821d06e6d6d9, type: 2}
  - m_RefCount: 1
    m_Data: {fileID: 11400000, guid: cacf4f0974fac1f4892f03793126c707, type: 2}
  m_TileSpriteArray:
  - m_RefCount: 1
    m_Data: {fileID: 21300000, guid: f2bb243324a7e4032a7984661c5d4efa, type: 3}
  - m_RefCount: 1
    m_Data: {fileID: 21300002, guid: f2bb243324a7e4032a7984661c5d4efa, type: 3}
  - m_RefCount: 1
    m_Data: {fileID: 21300004, guid: f2bb243324a7e4032a7984661c5d4efa, type: 3}
  - m_RefCount: 1
    m_Data: {fileID: 21300006, guid: f2bb243324a7e4032a7984661c5d4efa, type: 3}
  - m_RefCount: 1
    m_Data: {fileID: 21300008, guid: f2bb243324a7e4032a7984661c5d4efa, type: 3}
  - m_RefCount: 1
    m_Data: {fileID: 21300010, guid: f2bb243324a7e4032a7984661c5d4efa, type: 3}
  - m_RefCount: 1
    m_Data: {fileID: 21300012, guid: f2bb243324a7e4032a7984661c5d4efa, type: 3}
  - m_RefCount: 1
    m_Data: {fileID: 21300014, guid: f2bb243324a7e4032a7984661c5d4efa, type: 3}
  - m_RefCount: 1
    m_Data: {fileID: 21300016, guid: f2bb243324a7e4032a7984661c5d4efa, type: 3}
  - m_RefCount: 0
    m_Data: {fileID: 0}
  - m_RefCount: 0
    m_Data: {fileID: 0}
  - m_RefCount: 0
    m_Data: {fileID: 0}
  - m_RefCount: 0
    m_Data: {fileID: 0}
  - m_RefCount: 0
    m_Data: {fileID: 0}
  - m_RefCount: 0
    m_Data: {fileID: 0}
  - m_RefCount: 0
    m_Data: {fileID: 0}
  - m_RefCount: 0
    m_Data: {fileID: 0}
  - m_RefCount: 0
    m_Data: {fileID: 0}
  - m_RefCount: 1
    m_Data: {fileID: 21300000, guid: 9c59e7b95561448e8a65d698b8d65d0b, type: 3}
  - m_RefCount: 1
    m_Data: {fileID: 21300002, guid: 9c59e7b95561448e8a65d698b8d65d0b, type: 3}
  - m_RefCount: 1
    m_Data: {fileID: 21300004, guid: 9c59e7b95561448e8a65d698b8d65d0b, type: 3}
  - m_RefCount: 1
    m_Data: {fileID: 21300006, guid: 9c59e7b95561448e8a65d698b8d65d0b, type: 3}
  - m_RefCount: 1
    m_Data: {fileID: 21300008, guid: 9c59e7b95561448e8a65d698b8d65d0b, type: 3}
  - m_RefCount: 1
    m_Data: {fileID: 21300010, guid: 9c59e7b95561448e8a65d698b8d65d0b, type: 3}
  - m_RefCount: 0
    m_Data: {fileID: 0}
  - m_RefCount: 0
    m_Data: {fileID: 0}
  - m_RefCount: 0
    m_Data: {fileID: 0}
  - m_RefCount: 1
    m_Data: {fileID: 21300008, guid: 4eb3629bab2b44814af8ccc39dc7e550, type: 3}
  - m_RefCount: 0
    m_Data: {fileID: 0}
  - m_RefCount: 1
    m_Data: {fileID: 21300004, guid: 4eb3629bab2b44814af8ccc39dc7e550, type: 3}
  - m_RefCount: 0
    m_Data: {fileID: 0}
  - m_RefCount: 1
    m_Data: {fileID: 21300016, guid: 4eb3629bab2b44814af8ccc39dc7e550, type: 3}
  - m_RefCount: 1
    m_Data: {fileID: 21300002, guid: 4eb3629bab2b44814af8ccc39dc7e550, type: 3}
  - m_RefCount: 1
    m_Data: {fileID: 21300010, guid: 4eb3629bab2b44814af8ccc39dc7e550, type: 3}
  - m_RefCount: 1
    m_Data: {fileID: 21300012, guid: 4eb3629bab2b44814af8ccc39dc7e550, type: 3}
  - m_RefCount: 1
    m_Data: {fileID: 21300014, guid: 4eb3629bab2b44814af8ccc39dc7e550, type: 3}
  - m_RefCount: 1
    m_Data: {fileID: 21300004, guid: f1627fc650e9a49ec8dd40cef7017fd4, type: 3}
  - m_RefCount: 0
    m_Data: {fileID: 0}
  - m_RefCount: 0
    m_Data: {fileID: 0}
  - m_RefCount: 1
    m_Data: {fileID: 21300010, guid: f1627fc650e9a49ec8dd40cef7017fd4, type: 3}
  - m_RefCount: 0
    m_Data: {fileID: 0}
  - m_RefCount: 0
    m_Data: {fileID: 0}
  - m_RefCount: 1
    m_Data: {fileID: 21300016, guid: f1627fc650e9a49ec8dd40cef7017fd4, type: 3}
  - m_RefCount: 0
    m_Data: {fileID: 0}
  - m_RefCount: 0
    m_Data: {fileID: 0}
  - m_RefCount: 0
    m_Data: {fileID: 0}
  - m_RefCount: 0
    m_Data: {fileID: 0}
  - m_RefCount: 0
    m_Data: {fileID: 0}
  - m_RefCount: 0
    m_Data: {fileID: 0}
  - m_RefCount: 0
    m_Data: {fileID: 0}
  - m_RefCount: 0
    m_Data: {fileID: 0}
  - m_RefCount: 0
    m_Data: {fileID: 0}
  - m_RefCount: 0
    m_Data: {fileID: 0}
  - m_RefCount: 0
    m_Data: {fileID: 0}
  - m_RefCount: 1
    m_Data: {fileID: 21300016, guid: 9c59e7b95561448e8a65d698b8d65d0b, type: 3}
  - m_RefCount: 1
    m_Data: {fileID: 21300014, guid: 9c59e7b95561448e8a65d698b8d65d0b, type: 3}
  - m_RefCount: 1
    m_Data: {fileID: 21300012, guid: 9c59e7b95561448e8a65d698b8d65d0b, type: 3}
  - m_RefCount: 0
    m_Data: {fileID: 0}
  - m_RefCount: 0
    m_Data: {fileID: 0}
  - m_RefCount: 0
    m_Data: {fileID: 0}
  - m_RefCount: 0
    m_Data: {fileID: 0}
  - m_RefCount: 0
    m_Data: {fileID: 0}
  - m_RefCount: 1
    m_Data: {fileID: 21300000, guid: 715935ae33c8c4c24bb60e7cc161703e, type: 3}
  - m_RefCount: 1
    m_Data: {fileID: 21300000, guid: 78d3c996a6fa643129ca7b018f007e58, type: 3}
  - m_RefCount: 0
    m_Data: {fileID: 0}
  - m_RefCount: 1
    m_Data: {fileID: 21300006, guid: 4eb3629bab2b44814af8ccc39dc7e550, type: 3}
  - m_RefCount: 1
    m_Data: {fileID: 21300000, guid: 4eb3629bab2b44814af8ccc39dc7e550, type: 3}
  - m_RefCount: 1
    m_Data: {fileID: 21300014, guid: f1627fc650e9a49ec8dd40cef7017fd4, type: 3}
  - m_RefCount: 1
    m_Data: {fileID: 21300012, guid: f1627fc650e9a49ec8dd40cef7017fd4, type: 3}
  - m_RefCount: 1
    m_Data: {fileID: 21300008, guid: f1627fc650e9a49ec8dd40cef7017fd4, type: 3}
  - m_RefCount: 1
    m_Data: {fileID: 21300006, guid: f1627fc650e9a49ec8dd40cef7017fd4, type: 3}
  - m_RefCount: 1
    m_Data: {fileID: 21300002, guid: f1627fc650e9a49ec8dd40cef7017fd4, type: 3}
  - m_RefCount: 1
    m_Data: {fileID: 21300000, guid: f1627fc650e9a49ec8dd40cef7017fd4, type: 3}
  - m_RefCount: 1
    m_Data: {fileID: 21300000, guid: 15cf5646a194e4c508aa5664e3cb050b, type: 3}
  m_TileMatrixArray:
  - m_RefCount: 39
    m_Data:
      e00: 1
      e01: 0
      e02: 0
      e03: 0
      e10: 0
      e11: 1
      e12: 0
      e13: 0
      e20: 0
      e21: 0
      e22: 1
      e23: 0
      e30: 0
      e31: 0
      e32: 0
      e33: 1
  m_TileColorArray:
  - m_RefCount: 39
    m_Data: {r: 1, g: 1, b: 1, a: 1}
  - m_RefCount: 0
    m_Data: {r: 0.7383839, g: 0.44449407, b: 0.51838356, a: 1}
  - m_RefCount: 0
    m_Data: {r: 0.84994465, g: 0.43385202, b: 0.55882514, a: 1}
  - m_RefCount: 0
    m_Data: {r: 0.9218958, g: 0.3997816, b: 0.4890146, a: 1}
  - m_RefCount: 0
    m_Data: {r: 0.7758423, g: 0.36514908, b: 0.4412928, a: 1}
  - m_RefCount: 0
    m_Data: {r: 0.8396626, g: 0.35748106, b: 0.39531383, a: 1}
  - m_RefCount: 0
    m_Data: {r: 0.75447017, g: 0.49716395, b: 0.5400875, a: 1}
  - m_RefCount: 0
    m_Data: {r: 0.7265645, g: 0.45998478, b: 0.49135298, a: 1}
  - m_RefCount: 0
    m_Data: {r: 0.7441951, g: 0.34263408, b: 0.40047708, a: 1}
  - m_RefCount: 0
    m_Data: {r: 0.941131, g: 0.6579286, b: 0.68424374, a: 1}
  - m_RefCount: 0
    m_Data: {r: 0.8202572, g: 0.32993418, b: 0.3455869, a: 1}
  - m_RefCount: 0
    m_Data: {r: 0.95752734, g: 0.66529256, b: 0.7272124, a: 1}
  - m_RefCount: 0
    m_Data: {r: 0.8439071, g: 0.545762, b: 0.6068614, a: 1}
  - m_RefCount: 0
    m_Data: {r: 0.82689, g: 0.5421649, b: 0.5929155, a: 1}
  - m_RefCount: 0
    m_Data: {r: 0.80293983, g: 0.4175272, b: 0.47005528, a: 1}
  - m_RefCount: 0
    m_Data: {r: 0.99246323, g: 0.5798392, b: 0.6189977, a: 1}
  - m_RefCount: 0
    m_Data: {r: 0.7677811, g: 0.34205192, b: 0.4595266, a: 1}
  - m_RefCount: 0
    m_Data: {r: 0.9307314, g: 0.5636814, b: 0.596995, a: 1}
  - m_RefCount: 0
    m_Data: {r: 0.8509643, g: 0.3497535, b: 0.39872447, a: 1}
  - m_RefCount: 0
    m_Data: {r: 0.9225508, g: 0.46678418, b: 0.60611975, a: 1}
  - m_RefCount: 0
    m_Data: {r: 0.79179704, g: 0.40090486, b: 0.42415354, a: 1}
  - m_RefCount: 0
    m_Data: {r: 0.9699102, g: 0.6221706, b: 0.63396674, a: 1}
  - m_RefCount: 0
    m_Data: {r: 0.7477949, g: 0.5206246, b: 0.578672, a: 1}
  - m_RefCount: 0
    m_Data: {r: 0.9792081, g: 0.48453748, b: 0.6009618, a: 1}
  - m_RefCount: 0
    m_Data: {r: 0.81219697, g: 0.46369356, b: 0.50026596, a: 1}
  - m_RefCount: 0
    m_Data: {r: 0.9229198, g: 0.38802958, b: 0.5230399, a: 1}
  - m_RefCount: 0
    m_Data: {r: 0.8582779, g: 0.5915809, b: 0.66030926, a: 1}
  - m_RefCount: 0
    m_Data: {r: 0.83319706, g: 0.44893998, b: 0.53587985, a: 1}
  - m_RefCount: 0
    m_Data: {r: 0.8659406, g: 0.5227242, b: 0.53159875, a: 1}
  - m_RefCount: 0
    m_Data: {r: 0.82399637, g: 0.5339642, b: 0.5638337, a: 1}
  - m_RefCount: 0
    m_Data: {r: 0.91025615, g: 0.41541907, b: 0.5290674, a: 1}
  - m_RefCount: 0
    m_Data: {r: 0.70575064, g: 0.4326445, b: 0.50524825, a: 1}
  - m_RefCount: 0
    m_Data: {r: 0.8524725, g: 0.36411378, b: 0.44403765, a: 1}
  - m_RefCount: 0
    m_Data: {r: 0.9961383, g: 0.60979646, b: 0.72007406, a: 1}
  - m_RefCount: 0
    m_Data: {r: 0.8095581, g: 0.5627034, b: 0.5714239, a: 1}
  - m_RefCount: 0
    m_Data: {r: 0.84019566, g: 0.47246122, b: 0.5287205, a: 1}
  - m_RefCount: 0
    m_Data: {r: 0.980147, g: 0.45677015, b: 0.48482105, a: 1}
  m_AnimationFrameRate: 1
  m_Color: {r: 1, g: 1, b: 1, a: 1}
  m_Origin: {x: -11, y: -4, z: 0}
  m_Size: {x: 18, y: 82, z: 1}
  m_TileAnchor: {x: 0.5, y: 0.5, z: 0}
  m_TileOrientation: 0
  m_TileOrientationMatrix:
    e00: 1
    e01: 0
    e02: 0
    e03: 0
    e10: 0
    e11: 1
    e12: 0
    e13: 0
    e20: 0
    e21: 0
    e22: 1
    e23: 0
    e30: 0
    e31: 0
    e32: 0
    e33: 1
  m_TileRefreshArray:
  - serializedVersion: 1
    m_DirtyIndex: 0
  - serializedVersion: 1
    m_DirtyIndex: 0
  - serializedVersion: 1
    m_DirtyIndex: 0
  - serializedVersion: 1
    m_DirtyIndex: 0
  - serializedVersion: 1
    m_DirtyIndex: 0
  - serializedVersion: 1
    m_DirtyIndex: 0
  - serializedVersion: 1
    m_DirtyIndex: 0
  - serializedVersion: 1
    m_DirtyIndex: 0
  - serializedVersion: 1
    m_DirtyIndex: 0
  - serializedVersion: 1
    m_DirtyIndex: 1
  - serializedVersion: 1
    m_DirtyIndex: 1
  - serializedVersion: 1
    m_DirtyIndex: 1
  - serializedVersion: 1
    m_DirtyIndex: 1
  - serializedVersion: 1
    m_DirtyIndex: 1
  - serializedVersion: 1
    m_DirtyIndex: 1
  - serializedVersion: 1
    m_DirtyIndex: 1
  - serializedVersion: 1
    m_DirtyIndex: 1
  - serializedVersion: 1
    m_DirtyIndex: 1
  - serializedVersion: 1
    m_DirtyIndex: 0
  - serializedVersion: 1
    m_DirtyIndex: 0
  - serializedVersion: 1
    m_DirtyIndex: 0
  - serializedVersion: 1
    m_DirtyIndex: 0
  - serializedVersion: 1
    m_DirtyIndex: 0
  - serializedVersion: 1
    m_DirtyIndex: 0
  - serializedVersion: 1
    m_DirtyIndex: 0
  - serializedVersion: 1
    m_DirtyIndex: 0
  - serializedVersion: 1
    m_DirtyIndex: 0
  - serializedVersion: 1
    m_DirtyIndex: 0
  - serializedVersion: 1
    m_DirtyIndex: 0
  - serializedVersion: 1
    m_DirtyIndex: 0
  - serializedVersion: 1
    m_DirtyIndex: 0
  - serializedVersion: 1
    m_DirtyIndex: 0
  - serializedVersion: 1
    m_DirtyIndex: 0
  - serializedVersion: 1
    m_DirtyIndex: 0
  - serializedVersion: 1
    m_DirtyIndex: 0
  - serializedVersion: 1
    m_DirtyIndex: 0
  - serializedVersion: 1
    m_DirtyIndex: 1
  - serializedVersion: 1
    m_DirtyIndex: 1
  - serializedVersion: 1
    m_DirtyIndex: 1
  - serializedVersion: 1
    m_DirtyIndex: 1
  - serializedVersion: 1
    m_DirtyIndex: 1
  - serializedVersion: 1
    m_DirtyIndex: 1
  - serializedVersion: 1
    m_DirtyIndex: 1
  - serializedVersion: 1
    m_DirtyIndex: 1
  - serializedVersion: 1
    m_DirtyIndex: 1
  - serializedVersion: 1
    m_DirtyIndex: 1
  - serializedVersion: 1
    m_DirtyIndex: 1
  - serializedVersion: 1
    m_DirtyIndex: 1
  - serializedVersion: 1
    m_DirtyIndex: 1
  - serializedVersion: 1
    m_DirtyIndex: 1
  - serializedVersion: 1
    m_DirtyIndex: 1
  - serializedVersion: 1
    m_DirtyIndex: 1
  - serializedVersion: 1
    m_DirtyIndex: 1
  - serializedVersion: 1
    m_DirtyIndex: 0
  - serializedVersion: 1
    m_DirtyIndex: 0
  - serializedVersion: 1
    m_DirtyIndex: 0
  - serializedVersion: 1
    m_DirtyIndex: 0
  - serializedVersion: 1
    m_DirtyIndex: 0
  - serializedVersion: 1
    m_DirtyIndex: 0
  - serializedVersion: 1
    m_DirtyIndex: 0
  - serializedVersion: 1
    m_DirtyIndex: 0
  - serializedVersion: 1
    m_DirtyIndex: 0
  - serializedVersion: 1
    m_DirtyIndex: 0
  - serializedVersion: 1
    m_DirtyIndex: 0
  - serializedVersion: 1
    m_DirtyIndex: 0
