%YAML 1.1
%TAG !u! tag:unity3d.com,2011:
--- !u!1045 &1
EditorBuildSettings:
  m_ObjectHideFlags: 0
  serializedVersion: 2
  m_Scenes:
  - enabled: 1
    path: Assets/Scenes/MainScenes/MainMenu.unity
    guid: 68bcf6afe7ee19747aa48638a378e42c
  - enabled: 1
    path: Assets/Scenes/MainScenes/Tutorial.unity
    guid: 902c1231cb2af446e8e24b62cf1e58de
  - enabled: 1
    path: Assets/Scenes/MainScenes/Level1.unity
    guid: e97d9601d01fe064a927b1a7975aca48
  - enabled: 1
    path: Assets/Scenes/MainScenes/LevelSwitch1-2.unity
    guid: c1d1a175796044a16919b3997298c4c5
  - enabled: 1
    path: Assets/Scenes/MainScenes/Level2.unity
    guid: e4fec53cd650daf4f95e2bf2000d9af5
  - enabled: 1
    path: Assets/Scenes/MainScenes/LevelSwitch2-3.unity
    guid: 79bb39e36acca064d836d249c95229ef
  - enabled: 1
    path: Assets/Scenes/MainScenes/Level3.unity
    guid: fb0b519ca51b3234a93f7e84b881ff84
  - enabled: 1
    path: Assets/Scenes/MainScenes/LevelSwitch3-4.unity
    guid: 9745ce7e84b3c5f4f8e2008d8021dfef
  - enabled: 1
    path: Assets/Scenes/MainScenes/Level4.unity
    guid: 8b3401f315a0b484bbf4b63c23c7d496
